TRIANGLES 150
0.500000 0.500000 0.500000 1.000000
-0.385719 -0.185774 -0.891735 -0.746563 0.664690 -0.028841
-0.385719 -0.188522 -0.920009 -0.572494 0.544537 -0.612968
-0.385719 -0.189752 -0.919986 -0.999999 -0.001662 0.000234
-0.184844 -0.171392 -0.724195 -0.009264 -0.999846 -0.014937
-0.184835 -0.173658 -0.546095 0.096706 -0.995232 -0.012667
-0.385666 -0.189884 -0.804444 0.096706 -0.995232 -0.012667
-0.184844 -0.171392 -0.724195 -0.009264 -0.999846 -0.014937
-0.385666 -0.189884 -0.804444 0.092165 -0.995743 -0.001185
-0.385692 -0.189818 -0.862215 0.092165 -0.995743 -0.001185
-0.184852 -0.169126 -0.902298 0.095756 -0.624669 -0.774996
-0.385719 -0.189752 -0.919986 0.089669 -0.019309 -0.995784
-0.385719 -0.188522 -0.920009 -0.572494 0.544537 -0.612968
-0.184852 -0.169126 -0.902298 0.095756 -0.624669 -0.774996
-0.385719 -0.188522 -0.920009 0.096165 -0.090754 -0.991219
-0.184852 -0.164611 -0.902711 0.074116 -0.090926 -0.993096
-0.184852 -0.164611 -0.902711 -0.109489 0.989328 -0.096135
-0.385719 -0.188522 -0.920009 -0.572494 0.544537 -0.612968
-0.385719 -0.185774 -0.891735 -0.746563 0.664690 -0.028841
-0.184852 -0.164611 -0.902711 -0.106512 0.993760 -0.033104
-0.385719 -0.185774 -0.891735 -0.746563 0.664690 -0.028841
-0.184852 -0.161700 -0.815332 -0.099941 0.994568 -0.029079
-0.184852 -0.161700 -0.815332 -0.099941 0.994568 -0.029079
-0.385719 -0.185774 -0.891735 -0.746563 0.664690 -0.028841
-0.385721 -0.185774 -0.863406 -0.750313 0.661072 -0.003649
-0.184852 -0.161700 -0.815332 -0.099941 0.994568 -0.029079
-0.385721 -0.185774 -0.863406 -0.750313 0.661072 -0.003649
-0.184854 -0.159970 -0.727953 -0.126879 0.991832 -0.013035
-0.184854 -0.159970 -0.727953 -0.126879 0.991832 -0.013035
-0.385721 -0.185774 -0.863406 -0.750313 0.661072 -0.003649
-0.385644 -0.185774 -0.833925 -0.681534 0.730899 0.036024
-0.184854 -0.159970 -0.727953 -0.126879 0.991832 -0.013035
-0.385644 -0.185774 -0.833925 -0.681534 0.730899 0.036024
-0.184777 -0.159584 -0.637022 -0.384493 0.923124 0.002636
-0.385631 -0.188389 -0.804444 -0.857804 0.315669 0.405617
-0.385666 -0.189884 -0.804444 -0.976325 0.017964 0.215562
-0.184835 -0.173658 -0.546095 -0.891078 0.006293 0.453807
-0.385631 -0.188389 -0.804444 -0.857804 0.315669 0.405617
-0.184835 -0.173658 -0.546095 -0.891078 0.006293 0.453807
-0.184805 -0.169589 -0.546093 -0.724260 0.637422 0.262946
-0.184805 -0.169589 -0.546093 -0.724260 0.637422 0.262946
-0.184777 -0.159584 -0.637022 -0.384493 0.923124 0.002636
-0.385644 -0.185774 -0.833925 -0.681534 0.730899 0.036024
-0.184805 -0.169589 -0.546093 -0.724260 0.637422 0.262946
-0.385644 -0.185774 -0.833925 -0.681534 0.730899 0.036024
-0.385631 -0.188389 -0.804444 -0.857804 0.315669 0.405617
-0.385692 -0.189818 -0.862215 0.097221 -0.995262 -0.001218
-0.385705 -0.189784 -0.891100 0.097221 -0.995262 -0.001218
-0.184849 -0.170259 -0.813247 0.030926 -0.999311 -0.020529
-0.385692 -0.189818 -0.862215 0.099977 -0.994909 -0.012664
-0.184849 -0.170259 -0.813247 0.030926 -0.999311 -0.020529
-0.184844 -0.171392 -0.724195 -0.009264 -0.999846 -0.014937
-0.385705 -0.189784 -0.891100 0.102248 -0.994758 -0.001162
-0.385719 -0.189752 -0.919986 0.102248 -0.994758 -0.001162
-0.184852 -0.169126 -0.902298 0.095756 -0.624669 -0.774996
-0.385705 -0.189784 -0.891100 0.101605 -0.994744 -0.012660
-0.184852 -0.169126 -0.902298 0.095756 -0.624669 -0.774996
-0.184849 -0.170259 -0.813247 0.030926 -0.999311 -0.020529
-0.385666 -0.189884 -0.804444 -0.976325 0.017964 0.215562
-0.385631 -0.188389 -0.804444 -0.857804 0.315669 0.405617
-0.385644 -0.185774 -0.833925 -0.681534 0.730899 0.036024
-0.385644 -0.185774 -0.833925 -0.681534 0.730899 0.036024
-0.385721 -0.185774 -0.863406 -0.750313 0.661072 -0.003649
-0.385692 -0.189818 -0.862215 -0.999998 -0.001590 0.001170
-0.385644 -0.185774 -0.833925 -0.681534 0.730899 0.036024
-0.385692 -0.189818 -0.862215 -0.999998 -0.001590 0.001170
-0.385666 -0.189884 -0.804444 -0.976325 0.017964 0.215562
-0.385705 -0.189784 -0.891100 -0.999989 -0.004579 0.000291
-0.385692 -0.189818 -0.862215 -0.999998 -0.001590 0.001170
-0.385721 -0.185774 -0.863406 -0.750313 0.661072 -0.003649
-0.385705 -0.189784 -0.891100 -0.999989 -0.004579 0.000291
-0.385721 -0.185774 -0.863406 -0.750313 0.661072 -0.003649
-0.385719 -0.185774 -0.891735 -0.746563 0.664690 -0.028841
-0.385719 -0.189752 -0.919986 -0.999999 -0.001662 0.000234
-0.385705 -0.189784 -0.891100 -0.999989 -0.004579 0.000291
-0.385719 -0.185774 -0.891735 -0.746563 0.664690 -0.028841
0.388084 -0.189752 -0.919986 0.999999 -0.001680 0.000237
0.388084 -0.188522 -0.920009 0.515823 0.854879 -0.055763
0.388084 -0.185774 -0.891735 0.745110 0.666437 -0.025946
0.388056 -0.189818 -0.862215 -0.082043 -0.996628 -0.001181
0.388031 -0.189884 -0.804444 -0.082043 -0.996628 -0.001181
0.187200 -0.173658 -0.546095 -0.082043 -0.996628 -0.001181
0.388056 -0.189818 -0.862215 -0.099977 -0.994909 -0.012663
0.187200 -0.173658 -0.546095 -0.099977 -0.994909 -0.012663
0.187208 -0.171392 -0.724195 -0.006544 -0.999924 -0.010417
0.187217 -0.164611 -0.902711 -0.078958 -0.067089 -0.994618
0.388084 -0.188522 -0.920009 -0.088066 -0.019312 -0.995927
0.388084 -0.189752 -0.919986 -0.088066 -0.019312 -0.995927
0.187217 -0.164611 -0.902711 -0.078958 -0.067089 -0.994618
0.388084 -0.189752 -0.919986 -0.096599 -0.090751 -0.991178
0.187217 -0.169126 -0.902298 -0.056148 -0.619355 -0.783100
0.187217 -0.161700 -0.815332 0.112873 0.992850 -0.038842
0.388084 -0.185774 -0.891735 0.745110 0.666437 -0.025946
0.388084 -0.188522 -0.920009 0.515823 0.854879 -0.055763
0.187217 -0.161700 -0.815332 0.112873 0.992850 -0.038842
0.388084 -0.188522 -0.920009 0.515823 0.854879 -0.055763
0.187217 -0.164611 -0.902711 0.115331 0.992776 -0.033072
0.187219 -0.159970 -0.727953 0.152109 0.988222 -0.016732
0.388085 -0.185774 -0.863406 0.752599 0.658479 -0.000172
0.388084 -0.185774 -0.891735 0.745110 0.666437 -0.025946
0.187219 -0.159970 -0.727953 0.152109 0.988222 -0.016732
0.388084 -0.185774 -0.891735 0.745110 0.666437 -0.025946
0.187217 -0.161700 -0.815332 0.112873 0.992850 -0.038842
0.187142 -0.159584 -0.637022 0.341574 0.939686 0.017849
0.388009 -0.185774 -0.833925 0.858764 0.511821 0.023753
0.388085 -0.185774 -0.863406 0.752599 0.658479 -0.000172
0.187142 -0.159584 -0.637022 0.341574 0.939686 0.017849
0.388085 -0.185774 -0.863406 0.752599 0.658479 -0.000172
0.187219 -0.159970 -0.727953 0.152109 0.988222 -0.016732
0.187169 -0.169589 -0.546093 0.971081 0.144966 0.189702
0.187200 -0.173658 -0.546095 0.684657 -0.694741 0.220407
0.388031 -0.189884 -0.804444 0.945670 0.015077 0.324777
0.187169 -0.169589 -0.546093 0.971081 0.144966 0.189702
0.388031 -0.189884 -0.804444 0.945670 0.015077 0.324777
0.387995 -0.188389 -0.804444 0.720952 0.641787 0.261415
0.387995 -0.188389 -0.804444 0.720952 0.641787 0.261415
0.388009 -0.185774 -0.833925 0.858764 0.511821 0.023753
0.187142 -0.159584 -0.637022 0.341574 0.939686 0.017849
0.387995 -0.188389 -0.804444 0.720952 0.641787 0.261415
0.187142 -0.159584 -0.637022 0.341574 0.939686 0.017849
0.187169 -0.169589 -0.546093 0.971081 0.144966 0.189702
0.187208 -0.171392 -0.724195 -0.006544 -0.999924 -0.010417
0.187214 -0.170259 -0.813247 -0.008052 -0.999757 -0.020539
0.388070 -0.189784 -0.891100 -0.101606 -0.994744 -0.012662
0.187208 -0.171392 -0.724195 -0.006544 -0.999924 -0.010417
0.388070 -0.189784 -0.891100 -0.092187 -0.995741 -0.001217
0.388056 -0.189818 -0.862215 -0.092187 -0.995741 -0.001217
0.187214 -0.170259 -0.813247 -0.008052 -0.999757 -0.020539
0.187217 -0.169126 -0.902298 -0.056148 -0.619355 -0.783100
0.388084 -0.189752 -0.919986 -0.103241 -0.994576 -0.012658
0.187214 -0.170259 -0.813247 -0.008052 -0.999757 -0.020539
0.388084 -0.189752 -0.919986 -0.097198 -0.995264 -0.001160
0.388070 -0.189784 -0.891100 -0.097198 -0.995264 -0.001160
0.388009 -0.185774 -0.833925 0.858764 0.511821 0.023753
0.387995 -0.188389 -0.804444 0.720952 0.641787 0.261415
0.388031 -0.189884 -0.804444 0.945670 0.015077 0.324777
0.388056 -0.189818 -0.862215 0.999998 -0.001594 0.001170
0.388085 -0.185774 -0.863406 0.752599 0.658479 -0.000172
0.388009 -0.185774 -0.833925 0.858764 0.511821 0.023753
0.388031 -0.189884 -0.804444 0.945670 0.015077 0.324777
0.388056 -0.189818 -0.862215 0.999998 -0.001594 0.001170
0.388009 -0.185774 -0.833925 0.858764 0.511821 0.023753
0.388085 -0.185774 -0.863406 0.752599 0.658479 -0.000172
0.388056 -0.189818 -0.862215 0.999998 -0.001594 0.001170
0.388070 -0.189784 -0.891100 0.999989 -0.004607 0.000294
0.388084 -0.185774 -0.891735 0.745110 0.666437 -0.025946
0.388085 -0.185774 -0.863406 0.752599 0.658479 -0.000172
0.388070 -0.189784 -0.891100 0.999989 -0.004607 0.000294
0.388084 -0.185774 -0.891735 0.745110 0.666437 -0.025946
0.388070 -0.189784 -0.891100 0.999989 -0.004607 0.000294
0.388084 -0.189752 -0.919986 0.999999 -0.001680 0.000237
